number,runtime,name,institution,duedate
0,2023-03-26_0858,Master of Applied Data Science,,
1,2023-03-26_0858,Master of Science in Data Science,,
2,2023-03-26_0858,Master of Computer Science in Data Science,,
3,2023-03-26_0858,Master of Science in Machine Learning and Data Science,,
4,2023-03-26_0858,Magíster en Ciencia de Datos,,
5,2023-03-26_0858,Maestría en Inteligencia Analítica de Datos,,
6,2023-03-26_0858,"What Is a Data Scientist? Salary, Skills, and How to Become One",,
7,2023-03-26_0858,17 Data Science Podcasts to Listen to in 2023,,
8,2023-03-26_0858,4 Data Analyst Career Paths: Your Guide to Leveling Up,,
9,2023-03-26_0858,"What Is Data Science? Definition, Examples, Jobs, and More",,
10,2023-03-26_0858,Your Guide to Data Science Careers (+ How to Get Started),,
11,2023-03-26_0858,Data Scientist Salary Guide: What to Expect in 2023,,
12,2023-03-26_0858,What Is a Big Data Engineer? A 2023 Career Guide,,
13,2023-03-26_0858,"What Is Deep Learning? Definition, Examples, and Careers",,
14,2023-03-26_0858,What Is Big Data? A Layperson's Guide,,
15,2023-03-26_0858,Python or R for Data Analysis: Which Should I Learn?,,
16,2023-03-26_0858,Data Analyst vs. Data Scientist: What’s the Difference?,,
17,2023-03-26_0858,Is Data Analytics Hard? Tips for Rising to the Challenge,,
18,2023-03-26_0858,"What Is a Data Scientist? Salary, Skills, and How to Become One",,
19,2023-03-26_0858,17 Data Science Podcasts to Listen to in 2023,,
20,2023-03-26_0858,4 Data Analyst Career Paths: Your Guide to Leveling Up,,
21,2023-03-26_0858,"What Is Data Science? Definition, Examples, Jobs, and More",,
22,2023-03-26_0858,Your Guide to Data Science Careers (+ How to Get Started),,
23,2023-03-26_0858,Data Scientist Salary Guide: What to Expect in 2023,,
24,2023-03-26_0858,What Is a Big Data Engineer? A 2023 Career Guide,,
25,2023-03-26_0858,"What Is Deep Learning? Definition, Examples, and Careers",,
26,2023-03-26_0858,What Is Big Data? A Layperson's Guide,,
27,2023-03-26_0858,Python or R for Data Analysis: Which Should I Learn?,,
28,2023-03-26_0858,Data Analyst vs. Data Scientist: What’s the Difference?,,
29,2023-03-26_0858,Is Data Analytics Hard? Tips for Rising to the Challenge,,
30,2023-03-26_0858,"What Is a Data Scientist? Salary, Skills, and How to Become One",,
31,2023-03-26_0858,17 Data Science Podcasts to Listen to in 2023,,
32,2023-03-26_0858,4 Data Analyst Career Paths: Your Guide to Leveling Up,,
number,runtime,name,institution,duedate
0,2023-03-26_0859,Master of Applied Data Science,University of Michigan,"Application due June 1, 2023"
1,2023-03-26_0859,Master of Science in Data Science,University of Colorado Boulder,"Application due April 21, 2023"
2,2023-03-26_0859,Master of Computer Science in Data Science,University of Illinois at Urbana-Champaign,"Application due April 1, 2023"
3,2023-03-26_0859,Master of Science in Machine Learning and Data Science,Imperial College London,"Application due May 26, 2023"
4,2023-03-26_0859,Magíster en Ciencia de Datos,Pontificia Universidad Católica de Chile,"Application due July 7, 2023"
5,2023-03-26_0859,Maestría en Inteligencia Analítica de Datos,Universidad de los Andes,"Application due June 7, 2023"
6,2023-03-26_0859,"What Is a Data Scientist? Salary, Skills, and How to Become One",From Coursera,
7,2023-03-26_0859,17 Data Science Podcasts to Listen to in 2023,From Coursera,
8,2023-03-26_0859,4 Data Analyst Career Paths: Your Guide to Leveling Up,From Coursera,
9,2023-03-26_0859,"What Is Data Science? Definition, Examples, Jobs, and More",From Coursera,
10,2023-03-26_0859,Your Guide to Data Science Careers (+ How to Get Started),From Coursera,
11,2023-03-26_0859,Data Scientist Salary Guide: What to Expect in 2023,From Coursera,
12,2023-03-26_0859,What Is a Big Data Engineer? A 2023 Career Guide,From Coursera,
13,2023-03-26_0859,"What Is Deep Learning? Definition, Examples, and Careers",From Coursera,
14,2023-03-26_0859,What Is Big Data? A Layperson's Guide,From Coursera,
15,2023-03-26_0859,Python or R for Data Analysis: Which Should I Learn?,From Coursera,
16,2023-03-26_0859,Data Analyst vs. Data Scientist: What’s the Difference?,From Coursera,
17,2023-03-26_0859,Is Data Analytics Hard? Tips for Rising to the Challenge,From Coursera,
18,2023-03-26_0859,"What Is a Data Scientist? Salary, Skills, and How to Become One",From Coursera,
19,2023-03-26_0859,17 Data Science Podcasts to Listen to in 2023,From Coursera,
20,2023-03-26_0859,4 Data Analyst Career Paths: Your Guide to Leveling Up,From Coursera,
21,2023-03-26_0859,"What Is Data Science? Definition, Examples, Jobs, and More",From Coursera,
22,2023-03-26_0859,Your Guide to Data Science Careers (+ How to Get Started),From Coursera,
23,2023-03-26_0859,Data Scientist Salary Guide: What to Expect in 2023,From Coursera,
24,2023-03-26_0859,What Is a Big Data Engineer? A 2023 Career Guide,From Coursera,
25,2023-03-26_0859,"What Is Deep Learning? Definition, Examples, and Careers",From Coursera,
26,2023-03-26_0859,What Is Big Data? A Layperson's Guide,From Coursera,
27,2023-03-26_0859,Python or R for Data Analysis: Which Should I Learn?,From Coursera,
28,2023-03-26_0859,Data Analyst vs. Data Scientist: What’s the Difference?,From Coursera,
29,2023-03-26_0859,Is Data Analytics Hard? Tips for Rising to the Challenge,From Coursera,
30,2023-03-26_0859,"What Is a Data Scientist? Salary, Skills, and How to Become One",From Coursera,
31,2023-03-26_0859,17 Data Science Podcasts to Listen to in 2023,From Coursera,
32,2023-03-26_0859,4 Data Analyst Career Paths: Your Guide to Leveling Up,From Coursera,
number,runtime,name,institution,duedate
0,2023-03-26_0901,Master of Applied Data Science,University of Michigan,"Application due June 1, 2023"
1,2023-03-26_0901,Master of Science in Data Science,University of Colorado Boulder,"Application due April 21, 2023"
2,2023-03-26_0901,Master of Computer Science in Data Science,University of Illinois at Urbana-Champaign,"Application due April 1, 2023"
3,2023-03-26_0901,Master of Science in Machine Learning and Data Science,Imperial College London,"Application due May 26, 2023"
4,2023-03-26_0901,Magíster en Ciencia de Datos,Pontificia Universidad Católica de Chile,"Application due July 7, 2023"
5,2023-03-26_0901,Maestría en Inteligencia Analítica de Datos,Universidad de los Andes,"Application due June 7, 2023"
6,2023-03-26_0901,"What Is a Data Scientist? Salary, Skills, and How to Become One",From Coursera,No Due Date
7,2023-03-26_0901,17 Data Science Podcasts to Listen to in 2023,From Coursera,No Due Date
8,2023-03-26_0901,4 Data Analyst Career Paths: Your Guide to Leveling Up,From Coursera,No Due Date
9,2023-03-26_0901,"What Is Data Science? Definition, Examples, Jobs, and More",From Coursera,No Due Date
10,2023-03-26_0901,Your Guide to Data Science Careers (+ How to Get Started),From Coursera,No Due Date
11,2023-03-26_0901,Data Scientist Salary Guide: What to Expect in 2023,From Coursera,No Due Date
12,2023-03-26_0901,What Is a Big Data Engineer? A 2023 Career Guide,From Coursera,No Due Date
13,2023-03-26_0901,"What Is Deep Learning? Definition, Examples, and Careers",From Coursera,No Due Date
14,2023-03-26_0901,What Is Big Data? A Layperson's Guide,From Coursera,No Due Date
15,2023-03-26_0901,Python or R for Data Analysis: Which Should I Learn?,From Coursera,No Due Date
16,2023-03-26_0901,Data Analyst vs. Data Scientist: What’s the Difference?,From Coursera,No Due Date
17,2023-03-26_0901,Is Data Analytics Hard? Tips for Rising to the Challenge,From Coursera,No Due Date
18,2023-03-26_0901,"What Is a Data Scientist? Salary, Skills, and How to Become One",From Coursera,No Due Date
19,2023-03-26_0901,17 Data Science Podcasts to Listen to in 2023,From Coursera,No Due Date
20,2023-03-26_0901,4 Data Analyst Career Paths: Your Guide to Leveling Up,From Coursera,No Due Date
21,2023-03-26_0901,"What Is Data Science? Definition, Examples, Jobs, and More",From Coursera,No Due Date
22,2023-03-26_0901,Your Guide to Data Science Careers (+ How to Get Started),From Coursera,No Due Date
23,2023-03-26_0901,Data Scientist Salary Guide: What to Expect in 2023,From Coursera,No Due Date
24,2023-03-26_0901,What Is a Big Data Engineer? A 2023 Career Guide,From Coursera,No Due Date
25,2023-03-26_0901,"What Is Deep Learning? Definition, Examples, and Careers",From Coursera,No Due Date
26,2023-03-26_0901,What Is Big Data? A Layperson's Guide,From Coursera,No Due Date
27,2023-03-26_0901,Python or R for Data Analysis: Which Should I Learn?,From Coursera,No Due Date
28,2023-03-26_0901,Data Analyst vs. Data Scientist: What’s the Difference?,From Coursera,No Due Date
29,2023-03-26_0901,Is Data Analytics Hard? Tips for Rising to the Challenge,From Coursera,No Due Date
30,2023-03-26_0901,"What Is a Data Scientist? Salary, Skills, and How to Become One",From Coursera,No Due Date
31,2023-03-26_0901,17 Data Science Podcasts to Listen to in 2023,From Coursera,No Due Date
32,2023-03-26_0901,4 Data Analyst Career Paths: Your Guide to Leveling Up,From Coursera,No Due Date
number,runtime,name,institution,duedate
0,2023-03-26_0908,Master of Applied Data Science,,No Due Date
1,2023-03-26_0908,Master of Science in Data Science,,No Due Date
2,2023-03-26_0908,Master of Computer Science in Data Science,,No Due Date
3,2023-03-26_0908,Master of Science in Machine Learning and Data Science,,No Due Date
4,2023-03-26_0908,Magíster en Ciencia de Datos,,No Due Date
5,2023-03-26_0908,Maestría en Inteligencia Analítica de Datos,,No Due Date
6,2023-03-26_0908,"What Is a Data Scientist? Salary, Skills, and How to Become One",,No Due Date
7,2023-03-26_0908,17 Data Science Podcasts to Listen to in 2023,,No Due Date
8,2023-03-26_0908,4 Data Analyst Career Paths: Your Guide to Leveling Up,,No Due Date
9,2023-03-26_0908,"What Is Data Science? Definition, Examples, Jobs, and More",,No Due Date
10,2023-03-26_0908,Your Guide to Data Science Careers (+ How to Get Started),,No Due Date
11,2023-03-26_0908,Data Scientist Salary Guide: What to Expect in 2023,,No Due Date
12,2023-03-26_0908,What Is a Big Data Engineer? A 2023 Career Guide,,No Due Date
13,2023-03-26_0908,"What Is Deep Learning? Definition, Examples, and Careers",,No Due Date
14,2023-03-26_0908,What Is Big Data? A Layperson's Guide,,No Due Date
15,2023-03-26_0908,Python or R for Data Analysis: Which Should I Learn?,,No Due Date
16,2023-03-26_0908,Data Analyst vs. Data Scientist: What’s the Difference?,,No Due Date
17,2023-03-26_0908,Is Data Analytics Hard? Tips for Rising to the Challenge,,No Due Date
18,2023-03-26_0908,"What Is a Data Scientist? Salary, Skills, and How to Become One",,No Due Date
19,2023-03-26_0908,17 Data Science Podcasts to Listen to in 2023,,No Due Date
20,2023-03-26_0908,4 Data Analyst Career Paths: Your Guide to Leveling Up,,No Due Date
21,2023-03-26_0908,"What Is Data Science? Definition, Examples, Jobs, and More",,No Due Date
22,2023-03-26_0908,Your Guide to Data Science Careers (+ How to Get Started),,No Due Date
23,2023-03-26_0908,Data Scientist Salary Guide: What to Expect in 2023,,No Due Date
24,2023-03-26_0908,What Is a Big Data Engineer? A 2023 Career Guide,,No Due Date
25,2023-03-26_0908,"What Is Deep Learning? Definition, Examples, and Careers",,No Due Date
26,2023-03-26_0908,What Is Big Data? A Layperson's Guide,,No Due Date
27,2023-03-26_0908,Python or R for Data Analysis: Which Should I Learn?,,No Due Date
28,2023-03-26_0908,Data Analyst vs. Data Scientist: What’s the Difference?,,No Due Date
29,2023-03-26_0908,Is Data Analytics Hard? Tips for Rising to the Challenge,,No Due Date
30,2023-03-26_0908,"What Is a Data Scientist? Salary, Skills, and How to Become One",,No Due Date
31,2023-03-26_0908,17 Data Science Podcasts to Listen to in 2023,,No Due Date
32,2023-03-26_0908,4 Data Analyst Career Paths: Your Guide to Leveling Up,,No Due Date
