name,price
DJI Mini 3 Pro Drone with RC Remote Controller,£859.00
DJI Mini 3 Drone,£349.00
DJI Mini 3 Drone with DJI RC Remote Controller,£569.00
DJI Mini 3 Fly More Combo with DJI RC Remote Controller,£709.00
DJI Mini 2 SE Drone,£309.00
DJI Mavic 3 Classic Drone with DJI RC Remote Contoller,"£1,529.00"
DJI Mini 2 SE Fly More Combo,£439.00
DJI Avata Pro-View Combo,"£1,229.00"
DJI Mini 3 Drone with RC-N1 Remote Controller,£429.00
DJI Mavic 3 Fly More Combo,"£2,199.00"
DJI Air 2S Fly More Combo,"£1,039.00"
DJI Mini 3 Fly More Combo with RC-N1 Remote Controller,£569.00
DJI Mini 3 Pro Drone with RC-N1 Remote Controller,£709.00
DJI FPV Combo,£869.00
DJI Mavic 3 Classic Drone with RC-N1 Remote Controller,"£1,399.00"
DJI Avata Drone,£499.00
DJI Air 2S Drone,£899.00
DJI Avata Fly Smart Combo,£989.00
DJI Mavic 3 Classic Drone,"£1,309.00"
Autel Evo Nano Drone in Grey,£599.00
Autel Evo Nano Drone in Orange,£599.00
name,price
DJI Mini 3 Pro Drone with RC Remote Controller,£859.00
DJI Mini 3 Drone,£349.00
DJI Mini 3 Drone with DJI RC Remote Controller,£569.00
DJI Mini 3 Fly More Combo with DJI RC Remote Controller,£709.00
DJI Mini 2 SE Drone,£309.00
DJI Mavic 3 Classic Drone with DJI RC Remote Contoller,£1529.00
DJI Mini 2 SE Fly More Combo,£439.00
DJI Avata Pro-View Combo,£1229.00
DJI Mini 3 Drone with RC-N1 Remote Controller,£429.00
DJI Mavic 3 Fly More Combo,£2199.00
DJI Air 2S Fly More Combo,£1039.00
DJI Mini 3 Fly More Combo with RC-N1 Remote Controller,£569.00
DJI Mini 3 Pro Drone with RC-N1 Remote Controller,£709.00
DJI FPV Combo,£869.00
DJI Mavic 3 Classic Drone with RC-N1 Remote Controller,£1399.00
DJI Avata Drone,£499.00
DJI Air 2S Drone,£899.00
DJI Avata Fly Smart Combo,£989.00
DJI Mavic 3 Classic Drone,£1309.00
Autel Evo Nano Drone in Grey,£599.00
Autel Evo Nano Drone in Orange,£599.00
name,price
Autel Evo Nano+ Drone in Orange,£719.00
Autel Evo Nano+ Drone in Grey,£719.00
Autel Evo Nano Drone in Orange Premium Bundle,£719.00
Autel Evo Nano Drone in Grey Premium Bundle,£719.00
Autel Evo Nano+ Drone in Orange Premium Bundle,£859.00
Autel Evo Nano+ Drone in Grey Premium Bundle,£859.00
Autel Evo II Pro V3 Drone in Orange Rugged Bundle,£2249.00
DJI Mini 3 Pro Drone with RC Remote Controller,£859.00
DJI Mini 3 Drone,£349.00
DJI Mini 3 Drone with DJI RC Remote Controller,£569.00
DJI Mini 3 Fly More Combo with DJI RC Remote Controller,£709.00
DJI Mini 2 SE Drone,£309.00
DJI Mavic 3 Classic Drone with DJI RC Remote Contoller,£1529.00
DJI Mini 2 SE Fly More Combo,£439.00
DJI Avata Pro-View Combo,£1229.00
DJI Mini 3 Drone with RC-N1 Remote Controller,£429.00
DJI Mavic 3 Fly More Combo,£2199.00
DJI Air 2S Fly More Combo,£1039.00
DJI Mini 3 Fly More Combo with RC-N1 Remote Controller,£569.00
DJI Mini 3 Pro Drone with RC-N1 Remote Controller,£709.00
DJI FPV Combo,£869.00
DJI Mavic 3 Classic Drone with RC-N1 Remote Controller,£1399.00
DJI Avata Drone,£499.00
DJI Air 2S Drone,£899.00
DJI Avata Fly Smart Combo,£989.00
DJI Mavic 3 Classic Drone,£1309.00
Autel Evo Nano Drone in Grey,£599.00
Autel Evo Nano Drone in Orange,£599.00
number,runtime,name,price
0,2023-03-26_0553,Autel Evo Nano+ Drone in Orange,£719.00
1,2023-03-26_0553,Autel Evo Nano+ Drone in Grey,£719.00
2,2023-03-26_0553,Autel Evo Nano Drone in Orange Premium Bundle,£719.00
3,2023-03-26_0553,Autel Evo Nano Drone in Grey Premium Bundle,£719.00
4,2023-03-26_0553,Autel Evo Nano+ Drone in Orange Premium Bundle,£859.00
5,2023-03-26_0553,Autel Evo Nano+ Drone in Grey Premium Bundle,£859.00
6,2023-03-26_0553,Autel Evo II Pro V3 Drone in Orange Rugged Bundle,£2249.00
0,2023-03-26_0553,DJI Mini 3 Pro Drone with RC Remote Controller,£859.00
1,2023-03-26_0553,DJI Mini 3 Drone,£349.00
2,2023-03-26_0553,DJI Mini 3 Drone with DJI RC Remote Controller,£569.00
3,2023-03-26_0553,DJI Mini 3 Fly More Combo with DJI RC Remote Controller,£709.00
4,2023-03-26_0553,DJI Mini 2 SE Drone,£309.00
5,2023-03-26_0553,DJI Mavic 3 Classic Drone with DJI RC Remote Contoller,£1529.00
6,2023-03-26_0553,DJI Mini 2 SE Fly More Combo,£439.00
7,2023-03-26_0553,DJI Avata Pro-View Combo,£1229.00
8,2023-03-26_0553,DJI Mini 3 Drone with RC-N1 Remote Controller,£429.00
9,2023-03-26_0553,DJI Mavic 3 Fly More Combo,£2199.00
10,2023-03-26_0553,DJI Air 2S Fly More Combo,£1039.00
11,2023-03-26_0553,DJI Mini 3 Fly More Combo with RC-N1 Remote Controller,£569.00
12,2023-03-26_0553,DJI Mini 3 Pro Drone with RC-N1 Remote Controller,£709.00
13,2023-03-26_0553,DJI FPV Combo,£869.00
14,2023-03-26_0553,DJI Mavic 3 Classic Drone with RC-N1 Remote Controller,£1399.00
15,2023-03-26_0553,DJI Avata Drone,£499.00
16,2023-03-26_0553,DJI Air 2S Drone,£899.00
17,2023-03-26_0553,DJI Avata Fly Smart Combo,£989.00
18,2023-03-26_0553,DJI Mavic 3 Classic Drone,£1309.00
19,2023-03-26_0553,Autel Evo Nano Drone in Grey,£599.00
20,2023-03-26_0553,Autel Evo Nano Drone in Orange,£599.00
